…
counts <- plottingSite %>%
  samples() %>%
  toWide(ecologicalgroup = c("TRSH"),
         unit = c("NISP"),
         elementtypes = c("pollen"),
         groupby = "age",
         operation = "prop") 

counts <- counts[, colSums(counts > 0.01, na.rm = TRUE) > 5]
counts
```

```
## # A tibble: 36 × 11
##      age Cecropia Byrsonima Alchornea `Urticaceae/Moraceae` Melastomataceae
##    <int>    <dbl>     <dbl>     <dbl>                 <dbl>           <dbl>
##  1   969   0.0323    0.0323    0.0645                 0.323           0.484
##  2   989   0         0         0.190                  0.333           0.381
##  3  1010   0         0         0.273                  0.273           0.227
##  4  1031   0.0435    0.0435    0.174                  0.261           0.435
##  5  1051   0         0         0.263                  0.368           0.316
##  6  1072   0.05      0         0                      0.2             0.45 
##  7  1093   0         0         0.2                    0.333           0.4  
##  8  1113   0.05      0.05      0.1                    0.35            0.25 
##  9  1134   0.143     0         0.179                  0.25            0.179
## 10  1155   0.125     0.0833    0.167                  0.292           0.292
## # ℹ 26 more rows
## # ℹ 5 more variables: Coccoloba <dbl>, Myrtaceae <dbl>,
## #   `Anacardiaceae cf. Spondias` <dbl>, Curatella <dbl>, Celtis <dbl>
```
…
